Conduct ADAMS Search on Docket Numbers — search_docket • nrcadams
…
    Examples

  nrcadams::docket_codex |>
    dplyr::filter(Company == "ACU") |>
    dplyr::pull(DocketNumber) |>
    nrcadams::search_docket()
#> Searching with the following URL:
#>  https://adams.nrc.gov/wba/services/search/advanced/nrc?q=(mode:sections,sections:(filters:(public-library:!t),properties_search_any:!(!(DocketNumber,eq,'99902088',''),!(DocketNumber,eq,'05000610',''))))&qn=New&tab=advanced-search-pars&z=0 
#> : 1.274 sec elapsed
#> 
#>  This search returned: 110 files.
#> Warning: unknown timezone 'EDT'
#> Warning: unknown timezone 'EDT'
#> # A tibble: 110 × 8
#>    Title             `Document Date` `Publish Date`      Type  Affiliation URL  
#>    <chr>             <date>          <dttm>              <chr> <chr>       <chr>
#>  1 ACU CA, NO, SE, … 2023-06-08      2023-06-08 10:37:00 Grap… NRC/NMSS    "htt…
#>  2 2023/05/09 NRR E… 2023-05-09      2023-05-23 08:32:00 E-Ma… NRC/NRR/DA… "htt…
#>  3 2023/05/02 NRR E… 2023-05-02      2023-05-17 08:30:00 E-Ma… NRC/NRR/DA… "htt…
#>  4 2023/05/02 NRR E… 2023-05-02      2023-05-17 08:30:00 E-Ma… NRC/NRR/DA… "htt…
#>  5 ACU Draft Ea FWS… 2023-05-09      2023-05-10 08:30:00 Lett… NRC/NMSS/D… "htt…
#>  6 2023/04/26 NRR E… 2023-04-26      2023-05-10 08:28:00 E-Ma… NRC/NRR/DA… "htt…
#>  7 Ltr. to E. Micha… 2023-05-05      2023-05-08 15:05:00 Lett… NRC/NMSS/D… "htt…
#>  8 Ltr. to Bobby Go… 2023-05-05      2023-05-08 15:05:00 Lett… NRC/NMSS/D… "htt…
#>  9 Ltr. to Reggie W… 2023-05-05      2023-05-08 15:05:00 Lett… NRC/NMSS/D… "htt…
#> 10 Ltr. to Russell … 2023-05-05      2023-05-08 15:05:00 Lett… NRC/NMSS/D… "htt…
#> # ℹ 100 more rows
#> # ℹ 2 more variables: DocketNumber <dbl>, `ML Number` <chr>
…
